{
    "name": "PlayerInput",
    "maps": [
        {
            "name": "Player",
            "id": "75b408b4-1ed7-4055-92a6-478680ba6092",
            "actions": [
                {
                    "name": "Jump",
                    "type": "Button",
                    "id": "db24e4ea-aca9-4621-8ada-a785e6994600",
                    "expectedControlType": "Button",
                    "processors": "",
                    "interactions": "Press"
                },
                {
                    "name": "Move",
                    "type": "Value",
                    "id": "111f2c19-65c6-49ea-9f3a-ce437bb08d5d",
                    "expectedControlType": "Vector2",
                    "processors": "NormalizeVector2",
                    "interactions": "Press"
                },
                {
                    "name": "PlaceTower",
                    "type": "Button",
                    "id": "0b4f6eb0-4571-4769-8084-82d5db7cf27b",
                    "expectedControlType": "Button",
                    "processors": "NormalizeVector2",
                    "interactions": "Press"
                },
                {
                    "name": "Menu",
                    "type": "Button",
                    "id": "6068a584-9f80-4919-9f66-57b9bf2f8bd1",
                    "expectedControlType": "Button",
                    "processors": "NormalizeVector2",
                    "interactions": "Press"
                }
            ],
            "bindings": [
                {
                    "name": "",
                    "id": "d5b71a5d-8c8b-4c8c-bc49-cc16f57ad2cc",
                    "path": "<Keyboard>/space",
                    "interactions": "",
                    "processors": "",
                    "groups": "",
                    "action": "Jump",
                    "isComposite": false,
                    "isPartOfComposite": false
                },
                {
                    "name": "",
                    "id": "c99f0bf3-c9b4-4ce3-84ff-8ab83de7c6b4",
                    "path": "<Gamepad>/buttonSouth",
                    "interactions": "",
                    "processors": "",
                    "groups": "",
                    "action": "Jump",
                    "isComposite": false,
                    "isPartOfComposite": false
                },
                {
                    "name": "2D Vector",
                    "id": "e2e91328-07bb-4fb4-8b13-df1c9b0c7b3a",
                    "path": "2DVector",
                    "interactions": "",
                    "processors": "",
                    "groups": "",
                    "action": "Move",
                    "isComposite": true,
                    "isPartOfComposite": false
                },
                {
                    "name": "up",
                    "id": "a06e8747-a1b1-4637-99df-f9112b61d73e",
                    "path": "<Keyboard>/w",
                    "interactions": "",
                    "processors": "",
                    "groups": "",
                    "action": "Move",
                    "isComposite": false,
                    "isPartOfComposite": true
                },
                {
                    "name": "down",
                    "id": "e1a124e6-daa7-48b8-9d2f-4c674c0c7a11",
                    "path": "<Keyboard>/s",
                    "interactions": "",
                    "processors": "",
                    "groups": "",
                    "action": "Move",
                    "isComposite": false,
                    "isPartOfComposite": true
                },
                {
                    "name": "left",
                    "id": "7e494d37-4f5c-4e97-9c52-80ba8accad14",
                    "path": "<Keyboard>/a",
                    "interactions": "",
                    "processors": "",
                    "groups": "",
                    "action": "Move",
                    "isComposite": false,
                    "isPartOfComposite": true
                },
                {
                    "name": "right",
                    "id": "47aa00c3-c506-451c-bff9-02df6c7f4706",
                    "path": "<Keyboard>/d",
                    "interactions": "",
                    "processors": "",
                    "groups": "",
                    "action": "Move",
                    "isComposite": false,
                    "isPartOfComposite": true
                },
                {
                    "name": "",
                    "id": "88bada1b-48b3-414d-861f-fb75cc9d2c8b",
                    "path": "<Gamepad>/leftStick",
                    "interactions": "",
                    "processors": "",
                    "groups": "",
                    "action": "Move",
                    "isComposite": false,
                    "isPartOfComposite": false
                },
                {
                    "name": "",
                    "id": "f663098e-d510-4484-a34d-a8e0ad42fc91",
                    "path": "<Keyboard>/e",
                    "interactions": "",
                    "processors": "",
                    "groups": "",
                    "action": "PlaceTower",
                    "isComposite": false,
                    "isPartOfComposite": false
                },
                {
                    "name": "",
                    "id": "f2c9b40a-00db-4cec-9082-b2186ffc19c6",
                    "path": "<Gamepad>/buttonNorth",
                    "interactions": "",
                    "processors": "",
                    "groups": "",
                    "action": "PlaceTower",
                    "isComposite": false,
                    "isPartOfComposite": false
                },
                {
                    "name": "",
                    "id": "be9e755e-fda6-4f69-b9ed-a47c44200680",
                    "path": "<Gamepad>/start",
                    "interactions": "",
                    "processors": "",
                    "groups": "",
                    "action": "Menu",
                    "isComposite": false,
                    "isPartOfComposite": false
                },
                {
                    "name": "",
                    "id": "97a1a50b-1c8b-4974-90ff-76e62010a3ca",
                    "path": "<Keyboard>/escape",
                    "interactions": "",
                    "processors": "",
                    "groups": "",
                    "action": "Menu",
                    "isComposite": false,
                    "isPartOfComposite": false
                }
            ]
        }
    ],
    "controlSchemes": []
}