%YAML 1.1
%TAG !u! tag:unity3d.com,2011:
--- !u!221 &22100000
AnimatorOverrideController:
  m_ObjectHideFlags: 0
  m_CorrespondingSourceObject: {fileID: 0}
  m_PrefabInstance: {fileID: 0}
  m_PrefabAsset: {fileID: 0}
  m_Name: PrincessAOC
  m_Controller: {fileID: 9100000, guid: acbbbed84fe1ad444aa74e3a7f23448b, type: 2}
  m_Clips:
  - m_OriginalClip: {fileID: 7400000, guid: 45a6db2601095f745bb3682eebc9ab99, type: 2}
    m_OverrideClip: {fileID: 7400000, guid: 1eb71415237a07d438af896299aa9e6d, type: 2}
  - m_OriginalClip: {fileID: 7400000, guid: 3e39fe01333366445ad83efeadda5b5d, type: 2}
    m_OverrideClip: {fileID: 7400000, guid: 1eb71415237a07d438af896299aa9e6d, type: 2}
  - m_OriginalClip: {fileID: 7400000, guid: 66b216901d62b6c4c8f41c1de554c426, type: 2}
    m_OverrideClip: {fileID: 7400000, guid: 1eb71415237a07d438af896299aa9e6d, type: 2}
