%YAML 1.1
%TAG !u! tag:unity3d.com,2011:
--- !u!114 &11400000
MonoBehaviour:
  m_ObjectHideFlags: 0
  m_CorrespondingSourceObject: {fileID: 0}
  m_PrefabInstance: {fileID: 0}
  m_PrefabAsset: {fileID: 0}
  m_GameObject: {fileID: 0}
  m_Enabled: 1
  m_EditorHideFlags: 0
  m_Script: {fileID: 11500000, guid: 56f0e7a12b3b48cd9222e74c6e49af33, type: 3}
  m_Name: Tutorial 2
  m_EditorClassIdentifier: 
  sentences:
  - 'You made it! '
  - I knew you would.....
  - ....honest
  - This time you are going to have to jump to get closer to the top before you can
    attack him.
  - Also if you are wondering where he is coming from or where he is, use the track
    key to check his position.
  - You have a bit more time now, but hes coming soon.
